{
    "name": "Pozycjazamowienia",
    "fields": [
        {
            "fieldName": "pozycja",
            "fieldType": "Integer"
        },
        {
            "fieldName": "cenasztuka",
            "fieldType": "Float"
        },
        {
            "fieldName": "ilosc",
            "fieldType": "Integer"
        }
    ],
    "relationships": [
        {
            "relationshipType": "many-to-one",
            "relationshipName": "zamowienie",
            "otherEntityName": "zamowienie",
            "otherEntityField": "id"
        },
        {
            "relationshipType": "many-to-one",
            "relationshipName": "produkt",
            "otherEntityName": "produkt",
            "otherEntityField": "id"
        }
    ],
    "changelogDate": "20190121181352",
    "entityTableName": "pozycjazamowienia",
    "dto": "mapstruct",
    "pagination": "no",
    "service": "serviceImpl",
    "jpaMetamodelFiltering": false,
    "fluentMethods": true,
    "clientRootFolder": "",
    "applications": "*"
}